<svg width="277" height="619" viewBox="0 0 277 619" fill="none" xmlns="http://www.w3.org/2000/svg">
<g filter="url(#filter0_d)">
<rect x="35.3716" y="20" width="205.781" height="548.748" rx="5.48748" fill="#143B6B"/>
<path fill-rule="evenodd" clip-rule="evenodd" d="M35.3716 100.94H241.152V144.84H35.3716V100.94Z" fill="#0C2340"/>
<path fill-rule="evenodd" clip-rule="evenodd" d="M35.3716 100.94H38.1153V144.84H35.3716V100.94Z" fill="#FB534A"/>
<path d="M87.4515 130.403H90.0567C92.6742 130.403 94.5386 128.588 94.5386 126.032C94.5386 123.476 92.6742 121.661 90.0567 121.661H87.4515C87.2539 121.661 87.1428 121.772 87.1428 121.97V130.094C87.1428 130.292 87.2539 130.403 87.4515 130.403ZM90.0567 122.945C91.8223 122.945 93.1434 124.242 93.1434 126.032C93.1434 127.81 91.7976 129.119 90.0567 129.119H88.5257V122.945H90.0567ZM100.359 124.612V124.933H100.334C99.9517 124.513 99.322 124.18 98.5565 124.18C96.9144 124.18 95.6797 125.501 95.6797 127.353C95.6797 129.205 96.9144 130.526 98.5565 130.526C99.322 130.526 99.9517 130.193 100.334 129.773H100.359V130.094C100.359 130.292 100.47 130.403 100.668 130.403H101.359C101.557 130.403 101.668 130.292 101.668 130.094V124.612C101.668 124.415 101.557 124.303 101.359 124.303H100.668C100.47 124.303 100.359 124.415 100.359 124.612ZM100.359 126.106V128.6C100.026 129.02 99.4084 129.316 98.7911 129.316C97.7416 129.316 97.0131 128.514 97.0131 127.353C97.0131 126.193 97.7416 125.39 98.7911 125.39C99.4084 125.39 100.026 125.686 100.359 126.106ZM107.862 128.637C107.862 127.649 107.207 127.057 105.911 126.798L105.108 126.637C104.54 126.526 104.306 126.328 104.306 125.983C104.306 125.563 104.726 125.341 105.294 125.341C105.75 125.341 106.281 125.575 106.516 125.797C106.664 125.933 106.8 126.007 106.96 125.933L107.516 125.686C107.738 125.588 107.788 125.439 107.677 125.279C107.195 124.587 106.294 124.18 105.244 124.18C103.886 124.18 102.997 124.921 102.997 126.032C102.997 126.995 103.54 127.575 104.652 127.798L105.454 127.958C106.17 128.106 106.553 128.292 106.553 128.662C106.553 129.082 106.047 129.366 105.429 129.366C104.923 129.366 104.442 129.193 104.121 128.897C103.96 128.748 103.812 128.699 103.676 128.761L103.121 129.02C102.898 129.119 102.849 129.267 102.96 129.427C103.442 130.119 104.368 130.526 105.479 130.526C106.899 130.526 107.862 129.773 107.862 128.637ZM111.912 125.39C112.702 125.39 113.22 125.97 113.22 126.884V130.094C113.22 130.292 113.332 130.403 113.529 130.403H114.245C114.443 130.403 114.554 130.292 114.554 130.094V126.538C114.554 125.118 113.64 124.18 112.245 124.18C111.615 124.18 110.887 124.476 110.455 124.908H110.43V121.822C110.43 121.624 110.319 121.513 110.121 121.513H109.405C109.208 121.513 109.097 121.624 109.097 121.822V130.094C109.097 130.292 109.208 130.403 109.405 130.403H110.121C110.319 130.403 110.43 130.292 110.43 130.094V126.081C110.776 125.662 111.356 125.39 111.912 125.39ZM117.592 121.822C117.592 121.624 117.481 121.513 117.283 121.513H116.567C116.37 121.513 116.259 121.624 116.259 121.822V130.094C116.259 130.292 116.37 130.403 116.567 130.403H117.259C117.456 130.403 117.567 130.292 117.567 130.094V129.773H117.592C117.975 130.193 118.605 130.526 119.37 130.526C121.012 130.526 122.247 129.205 122.247 127.353C122.247 125.501 121.012 124.18 119.37 124.18C118.617 124.18 118 124.513 117.617 124.933H117.592V121.822ZM117.567 126.106C117.901 125.686 118.518 125.39 119.135 125.39C120.185 125.39 120.913 126.193 120.913 127.353C120.913 128.514 120.185 129.316 119.135 129.316C118.518 129.316 117.901 129.02 117.567 128.6V126.106ZM123.255 127.353C123.255 129.168 124.601 130.526 126.391 130.526C128.181 130.526 129.527 129.168 129.527 127.353C129.527 125.526 128.181 124.18 126.391 124.18C124.601 124.18 123.255 125.538 123.255 127.353ZM128.194 127.353C128.194 128.477 127.416 129.316 126.391 129.316C125.366 129.316 124.589 128.477 124.589 127.353C124.589 126.23 125.366 125.39 126.391 125.39C127.416 125.39 128.194 126.23 128.194 127.353ZM135.217 124.612V124.933H135.193C134.81 124.513 134.18 124.18 133.415 124.18C131.772 124.18 130.538 125.501 130.538 127.353C130.538 129.205 131.772 130.526 133.415 130.526C134.18 130.526 134.81 130.193 135.193 129.773H135.217V130.094C135.217 130.292 135.328 130.403 135.526 130.403H136.217C136.415 130.403 136.526 130.292 136.526 130.094V124.612C136.526 124.415 136.415 124.303 136.217 124.303H135.526C135.328 124.303 135.217 124.415 135.217 124.612ZM135.217 126.106V128.6C134.884 129.02 134.267 129.316 133.649 129.316C132.6 129.316 131.871 128.514 131.871 127.353C131.871 126.193 132.6 125.39 133.649 125.39C134.267 125.39 134.884 125.686 135.217 126.106ZM141.139 125.402C141.374 125.402 141.498 125.439 141.658 125.439C141.819 125.439 141.917 125.316 141.917 125.131V124.575C141.917 124.316 141.621 124.229 141.251 124.229C140.72 124.229 140.041 124.563 139.633 125.02H139.608V124.612C139.608 124.415 139.497 124.303 139.3 124.303H138.608C138.411 124.303 138.3 124.415 138.3 124.612V130.094C138.3 130.292 138.411 130.403 138.608 130.403H139.324C139.522 130.403 139.633 130.292 139.633 130.094V126.168C140.028 125.674 140.609 125.402 141.139 125.402ZM147.105 121.822V124.933H147.081C146.698 124.513 146.081 124.18 145.327 124.18C143.685 124.18 142.451 125.501 142.451 127.353C142.451 129.205 143.685 130.526 145.327 130.526C146.093 130.526 146.723 130.193 147.105 129.773H147.13V130.094C147.13 130.292 147.241 130.403 147.439 130.403H148.13C148.328 130.403 148.439 130.292 148.439 130.094V121.822C148.439 121.624 148.328 121.513 148.13 121.513H147.414C147.216 121.513 147.105 121.624 147.105 121.822ZM147.13 126.106V128.6C146.797 129.02 146.179 129.316 145.562 129.316C144.512 129.316 143.784 128.514 143.784 127.353C143.784 126.193 144.512 125.39 145.562 125.39C146.179 125.39 146.797 125.686 147.13 126.106Z" fill="white"/>
<g clip-path="url(#clip0)">
<path d="M59.3789 130.436V123.576H63.4945V130.436" stroke="white" stroke-width="1.37187" stroke-miterlimit="10"/>
<path d="M55.9497 130.435V120.521" stroke="white" stroke-width="1.37187" stroke-miterlimit="10"/>
<path d="M66.9243 120.521V130.435" stroke="white" stroke-width="1.37187" stroke-miterlimit="10"/>
<path d="M53.8921 122.204L61.4374 116.031L68.9827 122.204" stroke="white" stroke-width="1.37187" stroke-miterlimit="10"/>
<path d="M53.8916 130.436H68.9822" stroke="white" stroke-width="1.37187" stroke-miterlimit="10" stroke-linecap="square"/>
</g>
<path d="M89.7119 174.302C89.5473 174.302 89.465 174.216 89.465 174.043V166.351H86.761C86.6787 166.351 86.6129 166.331 86.5635 166.289C86.5223 166.24 86.5018 166.174 86.5018 166.092V165.82C86.5018 165.738 86.5223 165.676 86.5635 165.635C86.6129 165.586 86.6787 165.561 86.761 165.561H93.0085C93.0908 165.561 93.1526 165.586 93.1937 165.635C93.2431 165.676 93.2678 165.738 93.2678 165.82V166.092C93.2678 166.174 93.2431 166.24 93.1937 166.289C93.1526 166.331 93.0908 166.351 93.0085 166.351H90.3046V174.043C90.3046 174.216 90.2223 174.302 90.0576 174.302H89.7119ZM95.9445 168.956C95.6482 168.956 95.3518 169.035 95.0555 169.191C94.7592 169.347 94.4876 169.561 94.2406 169.833V174.043C94.2406 174.126 94.2159 174.191 94.1665 174.241C94.1254 174.282 94.0636 174.302 93.9813 174.302H93.685C93.6027 174.302 93.5368 174.282 93.4875 174.241C93.4463 174.191 93.4257 174.126 93.4257 174.043V168.537C93.4257 168.454 93.4463 168.392 93.4875 168.351C93.5368 168.302 93.6027 168.277 93.685 168.277H93.9813C94.0636 168.277 94.1254 168.302 94.1665 168.351C94.2159 168.392 94.2406 168.454 94.2406 168.537V169.08H94.253C94.5081 168.816 94.788 168.611 95.0925 168.462C95.3971 168.306 95.6975 168.228 95.9939 168.228C96.1667 168.228 96.3108 168.253 96.426 168.302C96.5412 168.343 96.5989 168.409 96.5989 168.499V168.759C96.5989 168.833 96.5783 168.895 96.5371 168.944C96.5042 168.985 96.4589 169.006 96.4013 169.006C96.3602 169.006 96.2984 168.997 96.2161 168.981C96.142 168.965 96.0515 168.956 95.9445 168.956ZM102.164 168.524C102.164 168.36 102.247 168.277 102.411 168.277H102.732C102.897 168.277 102.979 168.36 102.979 168.524V174.043C102.979 174.216 102.897 174.302 102.732 174.302H102.411C102.247 174.302 102.164 174.216 102.164 174.043V173.599H102.152C101.905 173.862 101.613 174.064 101.276 174.204C100.946 174.344 100.596 174.414 100.226 174.414C99.6334 174.414 99.1107 174.286 98.658 174.031C98.2135 173.776 97.8678 173.414 97.6209 172.944C97.3821 172.467 97.2628 171.915 97.2628 171.29C97.2628 170.664 97.3821 170.117 97.6209 169.648C97.8678 169.17 98.2135 168.804 98.658 168.549C99.1107 168.294 99.6334 168.166 100.226 168.166C100.596 168.166 100.946 168.236 101.276 168.376C101.613 168.516 101.905 168.718 102.152 168.981H102.164V168.524ZM102.189 169.784C102 169.528 101.728 169.323 101.374 169.166C101.02 169.002 100.671 168.919 100.325 168.919C99.8886 168.919 99.5017 169.018 99.1642 169.216C98.8267 169.413 98.5633 169.693 98.374 170.055C98.1847 170.417 98.09 170.829 98.09 171.29C98.09 171.751 98.1847 172.162 98.374 172.525C98.5633 172.887 98.8267 173.167 99.1642 173.364C99.5017 173.562 99.8886 173.66 100.325 173.66C100.671 173.66 101.02 173.582 101.374 173.426C101.728 173.261 102 173.051 102.189 172.796V169.784ZM109.507 165.672C109.507 165.499 109.59 165.413 109.754 165.413H110.075C110.24 165.413 110.322 165.499 110.322 165.672V174.043C110.322 174.216 110.24 174.302 110.075 174.302H109.754C109.59 174.302 109.507 174.216 109.507 174.043V173.611H109.495C109.248 173.874 108.96 174.076 108.631 174.216C108.302 174.348 107.952 174.414 107.581 174.414C106.989 174.414 106.466 174.286 106.013 174.031C105.569 173.776 105.223 173.414 104.976 172.944C104.729 172.467 104.606 171.915 104.606 171.29C104.606 170.664 104.729 170.117 104.976 169.648C105.223 169.17 105.569 168.804 106.013 168.549C106.466 168.294 106.989 168.166 107.581 168.166C107.952 168.166 108.302 168.236 108.631 168.376C108.96 168.508 109.248 168.705 109.495 168.969H109.507V165.672ZM109.532 169.771C109.343 169.516 109.071 169.31 108.717 169.154C108.363 168.997 108.005 168.919 107.643 168.919C106.985 168.919 106.45 169.137 106.038 169.574C105.635 170.01 105.433 170.582 105.433 171.29C105.433 171.998 105.635 172.57 106.038 173.006C106.45 173.442 106.985 173.66 107.643 173.66C108.005 173.66 108.363 173.582 108.717 173.426C109.071 173.269 109.343 173.064 109.532 172.809V169.771ZM112.183 166.438C112.183 166.273 112.237 166.141 112.344 166.042C112.451 165.935 112.591 165.882 112.764 165.882C112.928 165.882 113.06 165.935 113.159 166.042C113.266 166.141 113.319 166.273 113.319 166.438C113.319 166.594 113.266 166.726 113.159 166.833C113.052 166.94 112.92 166.993 112.764 166.993C112.591 166.993 112.451 166.94 112.344 166.833C112.237 166.726 112.183 166.594 112.183 166.438ZM113.159 174.043C113.159 174.216 113.076 174.302 112.912 174.302H112.591C112.426 174.302 112.344 174.216 112.344 174.043V168.537C112.344 168.364 112.426 168.277 112.591 168.277H112.912C113.076 168.277 113.159 168.364 113.159 168.537V174.043ZM116.017 168.981C116.264 168.734 116.56 168.537 116.906 168.388C117.26 168.24 117.614 168.166 117.967 168.166C118.675 168.166 119.235 168.38 119.647 168.808C120.058 169.228 120.264 169.8 120.264 170.524V174.043C120.264 174.126 120.239 174.191 120.19 174.241C120.149 174.282 120.087 174.302 120.005 174.302H119.708C119.626 174.302 119.56 174.282 119.511 174.241C119.47 174.191 119.449 174.126 119.449 174.043V170.635C119.449 170.117 119.293 169.701 118.98 169.388C118.667 169.076 118.256 168.919 117.745 168.919C117.4 168.919 117.074 168.997 116.77 169.154C116.474 169.302 116.218 169.52 116.004 169.808V174.043C116.004 174.216 115.922 174.302 115.757 174.302H115.436C115.272 174.302 115.189 174.216 115.189 174.043V168.524C115.189 168.36 115.272 168.277 115.436 168.277H115.757C115.922 168.277 116.004 168.36 116.004 168.524V168.981H116.017ZM124.763 176.883C124.409 176.883 124.063 176.834 123.726 176.735C123.397 176.636 123.113 176.496 122.874 176.315C122.783 176.249 122.738 176.179 122.738 176.105C122.738 176.064 122.75 176.019 122.775 175.969L122.886 175.735C122.936 175.636 123.001 175.587 123.084 175.587C123.125 175.587 123.178 175.607 123.244 175.648C123.434 175.796 123.66 175.912 123.923 175.994C124.187 176.085 124.467 176.13 124.763 176.13C125.397 176.13 125.878 175.941 126.208 175.562C126.537 175.183 126.701 174.681 126.701 174.056V173.611H126.689C126.45 173.874 126.162 174.076 125.825 174.216C125.496 174.348 125.142 174.414 124.763 174.414C124.17 174.414 123.648 174.286 123.195 174.031C122.75 173.776 122.405 173.414 122.158 172.944C121.919 172.467 121.8 171.915 121.8 171.29C121.8 170.664 121.919 170.117 122.158 169.648C122.405 169.17 122.75 168.804 123.195 168.549C123.648 168.294 124.17 168.166 124.763 168.166C125.142 168.166 125.496 168.236 125.825 168.376C126.162 168.508 126.45 168.705 126.689 168.969H126.701V168.524C126.701 168.36 126.788 168.277 126.961 168.277H127.269C127.442 168.277 127.529 168.36 127.529 168.524V174.056C127.529 174.599 127.413 175.084 127.183 175.512C126.961 175.941 126.64 176.274 126.22 176.513C125.8 176.76 125.314 176.883 124.763 176.883ZM126.726 169.771C126.537 169.524 126.265 169.323 125.911 169.166C125.557 169.002 125.207 168.919 124.862 168.919C124.425 168.919 124.039 169.018 123.701 169.216C123.364 169.413 123.1 169.693 122.911 170.055C122.722 170.417 122.627 170.829 122.627 171.29C122.627 171.751 122.722 172.162 122.911 172.525C123.1 172.887 123.364 173.167 123.701 173.364C124.039 173.562 124.425 173.66 124.862 173.66C125.207 173.66 125.557 173.582 125.911 173.426C126.265 173.261 126.537 173.055 126.726 172.809V169.771ZM132.97 174.302C132.888 174.302 132.822 174.282 132.772 174.241C132.731 174.191 132.711 174.126 132.711 174.043V165.82C132.711 165.738 132.731 165.676 132.772 165.635C132.822 165.586 132.888 165.561 132.97 165.561H135.365C136.18 165.561 136.913 165.75 137.563 166.129C138.213 166.508 138.719 167.03 139.082 167.697C139.452 168.355 139.637 169.1 139.637 169.932C139.637 170.763 139.452 171.512 139.082 172.179C138.711 172.837 138.201 173.356 137.551 173.735C136.9 174.113 136.172 174.302 135.365 174.302H132.97ZM133.55 173.512H135.365C136.007 173.512 136.588 173.356 137.106 173.043C137.633 172.73 138.044 172.302 138.341 171.759C138.645 171.216 138.798 170.607 138.798 169.932C138.798 169.257 138.649 168.648 138.353 168.104C138.057 167.561 137.645 167.133 137.118 166.82C136.6 166.508 136.015 166.351 135.365 166.351H133.55V173.512ZM145.885 168.524C145.885 168.36 145.967 168.277 146.132 168.277H146.453C146.617 168.277 146.7 168.36 146.7 168.524V174.043C146.7 174.216 146.617 174.302 146.453 174.302H146.132C145.967 174.302 145.885 174.216 145.885 174.043V173.599H145.872C145.626 173.862 145.333 174.064 144.996 174.204C144.667 174.344 144.317 174.414 143.946 174.414C143.354 174.414 142.831 174.286 142.378 174.031C141.934 173.776 141.588 173.414 141.341 172.944C141.102 172.467 140.983 171.915 140.983 171.29C140.983 170.664 141.102 170.117 141.341 169.648C141.588 169.17 141.934 168.804 142.378 168.549C142.831 168.294 143.354 168.166 143.946 168.166C144.317 168.166 144.667 168.236 144.996 168.376C145.333 168.516 145.626 168.718 145.872 168.981H145.885V168.524ZM145.91 169.784C145.72 169.528 145.449 169.323 145.095 169.166C144.741 169.002 144.391 168.919 144.045 168.919C143.609 168.919 143.222 169.018 142.885 169.216C142.547 169.413 142.284 169.693 142.094 170.055C141.905 170.417 141.81 170.829 141.81 171.29C141.81 171.751 141.905 172.162 142.094 172.525C142.284 172.887 142.547 173.167 142.885 173.364C143.222 173.562 143.609 173.66 144.045 173.66C144.391 173.66 144.741 173.582 145.095 173.426C145.449 173.261 145.72 173.051 145.91 172.796V169.784ZM150.129 172.426C150.129 172.813 150.215 173.117 150.388 173.339C150.561 173.553 150.8 173.66 151.104 173.66C151.318 173.66 151.577 173.599 151.882 173.475C151.931 173.451 151.981 173.438 152.03 173.438C152.112 173.438 152.178 173.488 152.228 173.586L152.339 173.821C152.364 173.87 152.376 173.916 152.376 173.957C152.376 174.039 152.318 174.105 152.203 174.154C151.816 174.327 151.425 174.414 151.03 174.414C150.487 174.414 150.063 174.237 149.758 173.883C149.462 173.529 149.314 173.027 149.314 172.376V168.993H148.092C148.009 168.993 147.943 168.973 147.894 168.932C147.853 168.882 147.832 168.816 147.832 168.734V168.537C147.832 168.454 147.853 168.392 147.894 168.351C147.943 168.302 148.009 168.277 148.092 168.277H149.314V167.006C149.314 166.89 149.326 166.812 149.351 166.771C149.376 166.73 149.429 166.689 149.511 166.647L149.808 166.499L149.907 166.475C149.972 166.475 150.026 166.499 150.067 166.549C150.108 166.59 150.129 166.643 150.129 166.709V168.277H152.005C152.088 168.277 152.15 168.302 152.191 168.351C152.24 168.392 152.265 168.454 152.265 168.537V168.734C152.265 168.816 152.24 168.882 152.191 168.932C152.15 168.973 152.088 168.993 152.005 168.993H150.129V172.426ZM157.991 168.524C157.991 168.36 158.073 168.277 158.237 168.277H158.558C158.723 168.277 158.805 168.36 158.805 168.524V174.043C158.805 174.216 158.723 174.302 158.558 174.302H158.237C158.073 174.302 157.991 174.216 157.991 174.043V173.599H157.978C157.731 173.862 157.439 174.064 157.102 174.204C156.772 174.344 156.422 174.414 156.052 174.414C155.459 174.414 154.937 174.286 154.484 174.031C154.04 173.776 153.694 173.414 153.447 172.944C153.208 172.467 153.089 171.915 153.089 171.29C153.089 170.664 153.208 170.117 153.447 169.648C153.694 169.17 154.04 168.804 154.484 168.549C154.937 168.294 155.459 168.166 156.052 168.166C156.422 168.166 156.772 168.236 157.102 168.376C157.439 168.516 157.731 168.718 157.978 168.981H157.991V168.524ZM158.015 169.784C157.826 169.528 157.554 169.323 157.2 169.166C156.846 169.002 156.497 168.919 156.151 168.919C155.715 168.919 155.328 169.018 154.99 169.216C154.653 169.413 154.389 169.693 154.2 170.055C154.011 170.417 153.916 170.829 153.916 171.29C153.916 171.751 154.011 172.162 154.2 172.525C154.389 172.887 154.653 173.167 154.99 173.364C155.328 173.562 155.715 173.66 156.151 173.66C156.497 173.66 156.846 173.582 157.2 173.426C157.554 173.261 157.826 173.051 158.015 172.796V169.784Z" fill="#A6A6A6"/>
<g clip-path="url(#clip1)">
<path d="M53.8921 164.732H67.6108L62.8092 159.931" stroke="#A6A6A6" stroke-width="1.37187" stroke-miterlimit="10" stroke-linecap="square"/>
<path d="M68.9824 168.848H55.2637L60.0652 173.649" stroke="#A6A6A6" stroke-width="1.37187" stroke-miterlimit="10" stroke-linecap="square"/>
</g>
<path d="M87.8723 214.973L86.9956 217.319C86.9545 217.451 86.8516 217.517 86.687 217.517H86.4277C86.3618 217.517 86.3083 217.504 86.2672 217.48C86.226 217.447 86.2054 217.405 86.2054 217.356C86.2054 217.34 86.2137 217.298 86.2301 217.233L89.3292 208.973C89.3703 208.841 89.4732 208.775 89.6378 208.775H90.0206C90.1852 208.775 90.2881 208.841 90.3293 208.973L93.4283 217.233C93.4448 217.266 93.453 217.307 93.453 217.356C93.453 217.463 93.3789 217.517 93.2308 217.517H92.9098C92.7451 217.517 92.6422 217.451 92.6011 217.319L91.7245 214.973H87.8723ZM91.4528 214.245L89.8107 209.837H89.7984L88.1439 214.245H91.4528ZM99.5108 212.837C99.5355 212.887 99.5478 212.932 99.5478 212.973C99.5478 213.014 99.5314 213.055 99.4984 213.096C99.4737 213.138 99.4367 213.166 99.3873 213.183L99.1157 213.306C99.0663 213.331 99.021 213.343 98.9799 213.343C98.9058 213.343 98.8358 213.29 98.77 213.183C98.5807 212.854 98.3337 212.598 98.0292 212.417C97.7246 212.228 97.3912 212.133 97.0291 212.133C96.6422 212.133 96.2883 212.236 95.9672 212.442C95.6545 212.648 95.4075 212.932 95.2264 213.294C95.0453 213.656 94.9548 214.059 94.9548 214.504C94.9548 214.948 95.0453 215.352 95.2264 215.714C95.4075 216.076 95.6545 216.36 95.9672 216.566C96.2883 216.772 96.6422 216.875 97.0291 216.875C97.4077 216.875 97.7493 216.776 98.0539 216.578C98.3666 216.381 98.6177 216.113 98.807 215.776C98.8729 215.66 98.9469 215.603 99.0293 215.603C99.0622 215.603 99.1033 215.615 99.1527 215.64L99.4244 215.763C99.4737 215.78 99.5108 215.809 99.5355 215.85C99.5684 215.891 99.5849 215.932 99.5849 215.973C99.5849 216.014 99.5725 216.06 99.5478 216.109C99.3009 216.578 98.9552 216.949 98.5107 217.22C98.0662 217.492 97.5723 217.628 97.0291 217.628C96.4776 217.628 95.9837 217.496 95.5474 217.233C95.1112 216.961 94.7655 216.586 94.5103 216.109C94.2634 215.632 94.1399 215.097 94.1399 214.504C94.1399 213.911 94.2634 213.376 94.5103 212.899C94.7655 212.421 95.1112 212.051 95.5474 211.788C95.9837 211.516 96.4776 211.38 97.0291 211.38C97.5641 211.38 98.0456 211.512 98.4737 211.775C98.9099 212.03 99.2556 212.384 99.5108 212.837ZM106.034 212.837C106.059 212.887 106.071 212.932 106.071 212.973C106.071 213.014 106.054 213.055 106.022 213.096C105.997 213.138 105.96 213.166 105.91 213.183L105.639 213.306C105.589 213.331 105.544 213.343 105.503 213.343C105.429 213.343 105.359 213.29 105.293 213.183C105.104 212.854 104.857 212.598 104.552 212.417C104.248 212.228 103.914 212.133 103.552 212.133C103.165 212.133 102.811 212.236 102.49 212.442C102.178 212.648 101.931 212.932 101.75 213.294C101.568 213.656 101.478 214.059 101.478 214.504C101.478 214.948 101.568 215.352 101.75 215.714C101.931 216.076 102.178 216.36 102.49 216.566C102.811 216.772 103.165 216.875 103.552 216.875C103.931 216.875 104.272 216.776 104.577 216.578C104.89 216.381 105.141 216.113 105.33 215.776C105.396 215.66 105.47 215.603 105.552 215.603C105.585 215.603 105.626 215.615 105.676 215.64L105.947 215.763C105.997 215.78 106.034 215.809 106.059 215.85C106.091 215.891 106.108 215.932 106.108 215.973C106.108 216.014 106.096 216.06 106.071 216.109C105.824 216.578 105.478 216.949 105.034 217.22C104.589 217.492 104.095 217.628 103.552 217.628C103.001 217.628 102.507 217.496 102.071 217.233C101.634 216.961 101.289 216.586 101.033 216.109C100.786 215.632 100.663 215.097 100.663 214.504C100.663 213.911 100.786 213.376 101.033 212.899C101.289 212.421 101.634 212.051 102.071 211.788C102.507 211.516 103.001 211.38 103.552 211.38C104.087 211.38 104.569 211.512 104.997 211.775C105.433 212.03 105.779 212.384 106.034 212.837ZM107.186 214.504C107.186 213.911 107.314 213.376 107.569 212.899C107.824 212.421 108.174 212.051 108.618 211.788C109.071 211.516 109.577 211.38 110.137 211.38C110.705 211.38 111.211 211.516 111.656 211.788C112.108 212.051 112.458 212.421 112.705 212.899C112.96 213.376 113.088 213.911 113.088 214.504C113.088 215.097 112.96 215.632 112.705 216.109C112.45 216.586 112.096 216.961 111.643 217.233C111.199 217.496 110.697 217.628 110.137 217.628C109.577 217.628 109.071 217.496 108.618 217.233C108.174 216.961 107.824 216.586 107.569 216.109C107.314 215.632 107.186 215.097 107.186 214.504ZM112.273 214.504C112.273 214.059 112.178 213.656 111.989 213.294C111.808 212.932 111.553 212.648 111.223 212.442C110.902 212.236 110.54 212.133 110.137 212.133C109.734 212.133 109.367 212.236 109.038 212.442C108.717 212.648 108.462 212.932 108.273 213.294C108.092 213.656 108.001 214.059 108.001 214.504C108.001 214.948 108.092 215.352 108.273 215.714C108.462 216.076 108.717 216.36 109.038 216.566C109.367 216.772 109.734 216.875 110.137 216.875C110.532 216.875 110.89 216.772 111.211 216.566C111.54 216.36 111.8 216.076 111.989 215.714C112.178 215.352 112.273 214.948 112.273 214.504ZM118.818 216.813C118.588 217.052 118.296 217.249 117.942 217.405C117.596 217.554 117.246 217.628 116.892 217.628C116.193 217.628 115.637 217.418 115.225 216.998C114.822 216.57 114.62 215.994 114.62 215.269V211.751C114.62 211.668 114.641 211.607 114.682 211.565C114.732 211.516 114.797 211.491 114.88 211.491H115.176C115.258 211.491 115.32 211.516 115.361 211.565C115.411 211.607 115.435 211.668 115.435 211.751V215.158C115.435 215.677 115.588 216.093 115.892 216.405C116.197 216.718 116.604 216.875 117.114 216.875C117.452 216.875 117.769 216.796 118.065 216.64C118.37 216.475 118.625 216.257 118.831 215.986V211.751C118.831 211.578 118.913 211.491 119.078 211.491H119.399C119.563 211.491 119.646 211.578 119.646 211.751V217.27C119.646 217.434 119.563 217.517 119.399 217.517H119.078C118.913 217.517 118.831 217.434 118.831 217.27V216.813H118.818ZM122.504 212.195C122.751 211.948 123.047 211.751 123.393 211.602C123.746 211.454 124.1 211.38 124.454 211.38C125.162 211.38 125.722 211.594 126.134 212.022C126.545 212.442 126.751 213.014 126.751 213.738V217.257C126.751 217.34 126.726 217.405 126.677 217.455C126.636 217.496 126.574 217.517 126.492 217.517H126.195C126.113 217.517 126.047 217.496 125.998 217.455C125.957 217.405 125.936 217.34 125.936 217.257V213.85C125.936 213.331 125.78 212.915 125.467 212.603C125.154 212.29 124.742 212.133 124.232 212.133C123.886 212.133 123.561 212.212 123.257 212.368C122.96 212.516 122.705 212.734 122.491 213.022V217.257C122.491 217.43 122.409 217.517 122.244 217.517H121.923C121.759 217.517 121.676 217.43 121.676 217.257V211.738C121.676 211.574 121.759 211.491 121.923 211.491H122.244C122.409 211.491 122.491 211.574 122.491 211.738V212.195H122.504ZM130.029 215.64C130.029 216.027 130.115 216.331 130.288 216.554C130.461 216.768 130.7 216.875 131.004 216.875C131.218 216.875 131.478 216.813 131.782 216.689C131.832 216.665 131.881 216.652 131.93 216.652C132.013 216.652 132.079 216.702 132.128 216.8L132.239 217.035C132.264 217.084 132.276 217.13 132.276 217.171C132.276 217.253 132.218 217.319 132.103 217.368C131.716 217.541 131.325 217.628 130.93 217.628C130.387 217.628 129.963 217.451 129.659 217.097C129.362 216.743 129.214 216.241 129.214 215.59V212.207H127.992C127.909 212.207 127.844 212.187 127.794 212.146C127.753 212.096 127.732 212.03 127.732 211.948V211.751C127.732 211.668 127.753 211.607 127.794 211.565C127.844 211.516 127.909 211.491 127.992 211.491H129.214V210.22C129.214 210.104 129.226 210.026 129.251 209.985C129.276 209.944 129.329 209.903 129.412 209.862L129.708 209.713L129.807 209.689C129.873 209.689 129.926 209.713 129.967 209.763C130.008 209.804 130.029 209.857 130.029 209.923V211.491H131.906C131.988 211.491 132.05 211.516 132.091 211.565C132.14 211.607 132.165 211.668 132.165 211.751V211.948C132.165 212.03 132.14 212.096 132.091 212.146C132.05 212.187 131.988 212.207 131.906 212.207H130.029V215.64ZM136.792 217.517C136.627 217.517 136.545 217.43 136.545 217.257V209.034C136.545 208.861 136.627 208.775 136.792 208.775H137.138C137.302 208.775 137.385 208.861 137.385 209.034V212.677H142.126V209.034C142.126 208.952 142.146 208.89 142.187 208.849C142.237 208.8 142.303 208.775 142.385 208.775H142.706C142.788 208.775 142.85 208.8 142.891 208.849C142.941 208.89 142.965 208.952 142.965 209.034V217.257C142.965 217.34 142.941 217.405 142.891 217.455C142.85 217.496 142.788 217.517 142.706 217.517H142.385C142.303 217.517 142.237 217.496 142.187 217.455C142.146 217.405 142.126 217.34 142.126 217.257V213.467H137.385V217.257C137.385 217.43 137.302 217.517 137.138 217.517H136.792ZM144.907 209.652C144.907 209.487 144.961 209.355 145.068 209.257C145.175 209.15 145.315 209.096 145.488 209.096C145.652 209.096 145.784 209.15 145.883 209.257C145.99 209.355 146.043 209.487 146.043 209.652C146.043 209.808 145.99 209.94 145.883 210.047C145.776 210.154 145.644 210.207 145.488 210.207C145.315 210.207 145.175 210.154 145.068 210.047C144.961 209.94 144.907 209.808 144.907 209.652ZM145.883 217.257C145.883 217.43 145.8 217.517 145.636 217.517H145.315C145.15 217.517 145.068 217.43 145.068 217.257V211.751C145.068 211.578 145.15 211.491 145.315 211.491H145.636C145.8 211.491 145.883 211.578 145.883 211.751V217.257ZM151.988 215.874C151.988 216.401 151.774 216.825 151.346 217.146C150.918 217.467 150.346 217.628 149.63 217.628C149.152 217.628 148.712 217.545 148.308 217.381C147.905 217.208 147.592 216.969 147.37 216.665C147.337 216.624 147.321 216.578 147.321 216.529C147.321 216.447 147.382 216.377 147.506 216.319L147.753 216.208C147.802 216.183 147.843 216.171 147.876 216.171C147.934 216.171 148.016 216.224 148.123 216.331C148.28 216.504 148.49 216.64 148.753 216.739C149.025 216.838 149.317 216.887 149.63 216.887C150.091 216.887 150.461 216.796 150.741 216.615C151.029 216.426 151.173 216.179 151.173 215.874C151.173 215.356 150.733 215.018 149.852 214.862L149.136 214.739C148.592 214.648 148.169 214.455 147.864 214.158C147.568 213.862 147.419 213.5 147.419 213.072C147.419 212.57 147.621 212.162 148.024 211.849C148.428 211.537 148.946 211.38 149.58 211.38C150.049 211.38 150.473 211.467 150.852 211.64C151.231 211.812 151.539 212.059 151.778 212.38C151.811 212.421 151.827 212.467 151.827 212.516C151.827 212.598 151.766 212.668 151.642 212.726L151.395 212.825C151.346 212.849 151.305 212.862 151.272 212.862C151.231 212.862 151.189 212.849 151.148 212.825C151.107 212.792 151.062 212.751 151.012 212.701C150.823 212.512 150.605 212.368 150.358 212.269C150.111 212.17 149.852 212.121 149.58 212.121C149.193 212.121 148.868 212.207 148.605 212.38C148.35 212.553 148.222 212.784 148.222 213.072C148.222 213.31 148.329 213.512 148.543 213.677C148.765 213.841 149.09 213.961 149.518 214.035L150.247 214.158C150.798 214.249 151.226 214.446 151.531 214.751C151.836 215.055 151.988 215.43 151.988 215.874ZM154.771 215.64C154.771 216.027 154.857 216.331 155.03 216.554C155.203 216.768 155.442 216.875 155.746 216.875C155.96 216.875 156.22 216.813 156.524 216.689C156.574 216.665 156.623 216.652 156.672 216.652C156.755 216.652 156.82 216.702 156.87 216.8L156.981 217.035C157.006 217.084 157.018 217.13 157.018 217.171C157.018 217.253 156.96 217.319 156.845 217.368C156.458 217.541 156.067 217.628 155.672 217.628C155.129 217.628 154.705 217.451 154.4 217.097C154.104 216.743 153.956 216.241 153.956 215.59V212.207H152.734C152.651 212.207 152.585 212.187 152.536 212.146C152.495 212.096 152.474 212.03 152.474 211.948V211.751C152.474 211.668 152.495 211.607 152.536 211.565C152.585 211.516 152.651 211.491 152.734 211.491H153.956V210.22C153.956 210.104 153.968 210.026 153.993 209.985C154.018 209.944 154.071 209.903 154.154 209.862L154.45 209.713L154.549 209.689C154.614 209.689 154.668 209.713 154.709 209.763C154.75 209.804 154.771 209.857 154.771 209.923V211.491H156.648C156.73 211.491 156.792 211.516 156.833 211.565C156.882 211.607 156.907 211.668 156.907 211.751V211.948C156.907 212.03 156.882 212.096 156.833 212.146C156.792 212.187 156.73 212.207 156.648 212.207H154.771V215.64ZM157.731 214.504C157.731 213.911 157.859 213.376 158.114 212.899C158.369 212.421 158.719 212.051 159.163 211.788C159.616 211.516 160.122 211.38 160.682 211.38C161.25 211.38 161.756 211.516 162.2 211.788C162.653 212.051 163.003 212.421 163.25 212.899C163.505 213.376 163.633 213.911 163.633 214.504C163.633 215.097 163.505 215.632 163.25 216.109C162.995 216.586 162.641 216.961 162.188 217.233C161.744 217.496 161.242 217.628 160.682 217.628C160.122 217.628 159.616 217.496 159.163 217.233C158.719 216.961 158.369 216.586 158.114 216.109C157.859 215.632 157.731 215.097 157.731 214.504ZM162.818 214.504C162.818 214.059 162.723 213.656 162.534 213.294C162.353 212.932 162.098 212.648 161.768 212.442C161.447 212.236 161.085 212.133 160.682 212.133C160.278 212.133 159.912 212.236 159.583 212.442C159.262 212.648 159.007 212.932 158.817 213.294C158.636 213.656 158.546 214.059 158.546 214.504C158.546 214.948 158.636 215.352 158.817 215.714C159.007 216.076 159.262 216.36 159.583 216.566C159.912 216.772 160.278 216.875 160.682 216.875C161.077 216.875 161.435 216.772 161.756 216.566C162.085 216.36 162.345 216.076 162.534 215.714C162.723 215.352 162.818 214.948 162.818 214.504ZM167.783 212.17C167.486 212.17 167.19 212.249 166.894 212.405C166.598 212.561 166.326 212.775 166.079 213.047V217.257C166.079 217.34 166.054 217.405 166.005 217.455C165.964 217.496 165.902 217.517 165.82 217.517H165.523C165.441 217.517 165.375 217.496 165.326 217.455C165.285 217.405 165.264 217.34 165.264 217.257V211.751C165.264 211.668 165.285 211.607 165.326 211.565C165.375 211.516 165.441 211.491 165.523 211.491H165.82C165.902 211.491 165.964 211.516 166.005 211.565C166.054 211.607 166.079 211.668 166.079 211.751V212.294H166.091C166.346 212.03 166.626 211.825 166.931 211.677C167.235 211.52 167.536 211.442 167.832 211.442C168.005 211.442 168.149 211.467 168.264 211.516C168.38 211.557 168.437 211.623 168.437 211.714V211.973C168.437 212.047 168.417 212.109 168.375 212.158C168.343 212.199 168.297 212.22 168.24 212.22C168.198 212.22 168.137 212.212 168.054 212.195C167.98 212.179 167.89 212.17 167.783 212.17ZM171.576 218.653C171.386 219.138 171.143 219.5 170.847 219.739C170.551 219.978 170.193 220.097 169.773 220.097C169.37 220.097 169.007 220.007 168.686 219.825C168.571 219.76 168.514 219.698 168.514 219.64C168.514 219.607 168.526 219.566 168.551 219.517L168.674 219.27C168.723 219.171 168.789 219.122 168.872 219.122C168.921 219.122 168.97 219.134 169.02 219.159C169.291 219.282 169.542 219.344 169.773 219.344C170.267 219.344 170.629 219.035 170.859 218.418L171.205 217.517L168.983 211.775C168.966 211.742 168.958 211.697 168.958 211.64C168.958 211.541 169.028 211.491 169.168 211.491H169.514C169.58 211.491 169.637 211.512 169.687 211.553C169.736 211.586 169.773 211.631 169.798 211.689L171.6 216.541H171.613L173.403 211.689C173.452 211.557 173.551 211.491 173.699 211.491H174.07C174.21 211.491 174.28 211.541 174.28 211.64C174.28 211.697 174.271 211.742 174.255 211.775L171.576 218.653Z" fill="#A6A6A6"/>
<g clip-path="url(#clip2)">
<path d="M61.4375 203.145V218.235" stroke="#A6A6A6" stroke-width="1.37187" stroke-miterlimit="10" stroke-linecap="square"/>
<path d="M68.9828 203.831H64.8672V207.946H68.9828V203.831Z" stroke="#A6A6A6" stroke-width="1.37187" stroke-miterlimit="10" stroke-linecap="square"/>
<path d="M62.8094 205.888H61.4375" stroke="#A6A6A6" stroke-width="1.37187" stroke-miterlimit="10" stroke-linecap="square"/>
<path d="M68.9828 213.434H64.8672V217.549H68.9828V213.434Z" stroke="#A6A6A6" stroke-width="1.37187" stroke-miterlimit="10" stroke-linecap="square"/>
<path d="M62.8094 215.491H61.4375" stroke="#A6A6A6" stroke-width="1.37187" stroke-miterlimit="10" stroke-linecap="square"/>
<path d="M53.8922 212.748H58.0078V208.632H53.8922V212.748Z" stroke="#A6A6A6" stroke-width="1.37187" stroke-miterlimit="10" stroke-linecap="square"/>
<path d="M60.0659 210.69H61.4378" stroke="#A6A6A6" stroke-width="1.37187" stroke-miterlimit="10" stroke-linecap="square"/>
</g>
<path d="M87.4772 260.73C87.3948 260.73 87.329 260.71 87.2796 260.669C87.2384 260.619 87.2179 260.553 87.2179 260.471V252.248C87.2179 252.166 87.2384 252.104 87.2796 252.063C87.329 252.014 87.3948 251.989 87.4772 251.989H87.9093C87.9834 251.989 88.041 252.001 88.0821 252.026C88.1233 252.051 88.1645 252.096 88.2056 252.162L91.1565 257.261L94.0333 252.162C94.0992 252.047 94.2021 251.989 94.342 251.989H94.7494C94.9141 251.989 94.9964 252.075 94.9964 252.248V260.471C94.9964 260.644 94.9141 260.73 94.7494 260.73H94.4284C94.3461 260.73 94.2803 260.71 94.2309 260.669C94.1897 260.619 94.1691 260.553 94.1691 260.471V253.483H94.1568L91.5886 258.027C91.5228 258.142 91.424 258.199 91.2923 258.199H90.959C90.8273 258.199 90.7285 258.142 90.6626 258.027L88.0575 253.483H88.0451V260.471C88.0451 260.553 88.0204 260.619 87.971 260.669C87.9299 260.71 87.8681 260.73 87.7858 260.73H87.4772ZM98.8691 261.866C98.6798 262.352 98.437 262.714 98.1407 262.953C97.8443 263.192 97.4863 263.311 97.0665 263.311C96.6632 263.311 96.301 263.22 95.98 263.039C95.8647 262.973 95.8071 262.912 95.8071 262.854C95.8071 262.821 95.8195 262.78 95.8442 262.731L95.9676 262.484C96.017 262.385 96.0829 262.336 96.1652 262.336C96.2146 262.336 96.264 262.348 96.3133 262.373C96.585 262.496 96.836 262.558 97.0665 262.558C97.5604 262.558 97.9225 262.249 98.153 261.632L98.4987 260.73L96.2763 254.989C96.2598 254.956 96.2516 254.911 96.2516 254.853C96.2516 254.755 96.3216 254.705 96.4615 254.705H96.8072C96.8731 254.705 96.9307 254.726 96.9801 254.767C97.0295 254.8 97.0665 254.845 97.0912 254.903L98.8938 259.755H98.9062L100.696 254.903C100.746 254.771 100.845 254.705 100.993 254.705H101.363C101.503 254.705 101.573 254.755 101.573 254.853C101.573 254.911 101.565 254.956 101.548 254.989L98.8691 261.866ZM105.403 256.36C105.403 255.487 105.576 254.713 105.921 254.038C106.267 253.355 106.749 252.824 107.366 252.446C107.991 252.067 108.699 251.878 109.49 251.878C110.272 251.878 110.967 252.059 111.576 252.421C112.193 252.783 112.675 253.289 113.021 253.94C113.045 253.989 113.058 254.034 113.058 254.076C113.058 254.117 113.041 254.158 113.008 254.199C112.984 254.24 112.947 254.269 112.897 254.285L112.589 254.421C112.556 254.438 112.515 254.446 112.465 254.446C112.366 254.446 112.292 254.397 112.243 254.298C111.971 253.796 111.593 253.401 111.107 253.112C110.621 252.816 110.082 252.668 109.49 252.668C108.864 252.668 108.304 252.824 107.81 253.137C107.316 253.45 106.93 253.886 106.65 254.446C106.378 255.006 106.242 255.644 106.242 256.36C106.242 257.076 106.378 257.714 106.65 258.273C106.93 258.833 107.316 259.269 107.81 259.582C108.304 259.895 108.864 260.051 109.49 260.051C110.082 260.051 110.617 259.907 111.095 259.619C111.58 259.331 111.963 258.932 112.243 258.422C112.292 258.323 112.366 258.273 112.465 258.273C112.515 258.273 112.556 258.282 112.589 258.298L112.897 258.434C112.947 258.45 112.984 258.479 113.008 258.52C113.041 258.562 113.058 258.603 113.058 258.644C113.058 258.685 113.045 258.73 113.021 258.78C112.675 259.43 112.193 259.936 111.576 260.298C110.967 260.661 110.272 260.842 109.49 260.842C108.699 260.842 107.991 260.652 107.366 260.274C106.749 259.895 106.267 259.368 105.921 258.693C105.576 258.01 105.403 257.232 105.403 256.36ZM114.155 257.718C114.155 257.125 114.283 256.59 114.538 256.113C114.793 255.635 115.143 255.265 115.588 255.002C116.04 254.73 116.546 254.594 117.106 254.594C117.674 254.594 118.18 254.73 118.625 255.002C119.078 255.265 119.427 255.635 119.674 256.113C119.929 256.59 120.057 257.125 120.057 257.718C120.057 258.31 119.929 258.846 119.674 259.323C119.419 259.8 119.065 260.175 118.612 260.446C118.168 260.71 117.666 260.842 117.106 260.842C116.546 260.842 116.04 260.71 115.588 260.446C115.143 260.175 114.793 259.8 114.538 259.323C114.283 258.846 114.155 258.31 114.155 257.718ZM119.242 257.718C119.242 257.273 119.148 256.87 118.958 256.508C118.777 256.146 118.522 255.862 118.193 255.656C117.872 255.45 117.51 255.347 117.106 255.347C116.703 255.347 116.337 255.45 116.007 255.656C115.686 255.862 115.431 256.146 115.242 256.508C115.061 256.87 114.97 257.273 114.97 257.718C114.97 258.162 115.061 258.566 115.242 258.928C115.431 259.29 115.686 259.574 116.007 259.78C116.337 259.986 116.703 260.088 117.106 260.088C117.501 260.088 117.859 259.986 118.18 259.78C118.51 259.574 118.769 259.29 118.958 258.928C119.148 258.566 119.242 258.162 119.242 257.718ZM122.516 255.434C123.051 254.874 123.664 254.594 124.355 254.594C124.759 254.594 125.113 254.685 125.417 254.866C125.73 255.047 125.973 255.306 126.146 255.644C126.384 255.298 126.693 255.039 127.072 254.866C127.45 254.685 127.87 254.594 128.331 254.594C128.948 254.594 129.438 254.808 129.8 255.236C130.171 255.664 130.356 256.236 130.356 256.952V260.471C130.356 260.644 130.274 260.73 130.109 260.73H129.788C129.623 260.73 129.541 260.644 129.541 260.471V257.063C129.541 256.553 129.401 256.142 129.121 255.829C128.85 255.508 128.496 255.347 128.059 255.347C127.738 255.347 127.426 255.43 127.121 255.594C126.816 255.751 126.561 255.973 126.356 256.261C126.405 256.467 126.43 256.697 126.43 256.952V260.471C126.43 260.553 126.405 260.619 126.356 260.669C126.314 260.71 126.253 260.73 126.17 260.73H125.874C125.792 260.73 125.726 260.71 125.676 260.669C125.635 260.619 125.615 260.553 125.615 260.471V257.063C125.615 256.561 125.479 256.15 125.207 255.829C124.936 255.508 124.582 255.347 124.145 255.347C123.849 255.347 123.549 255.43 123.244 255.594C122.948 255.751 122.701 255.965 122.503 256.236V260.471C122.503 260.644 122.421 260.73 122.256 260.73H121.935C121.771 260.73 121.688 260.644 121.688 260.471V254.952C121.688 254.788 121.771 254.705 121.935 254.705H122.256C122.421 254.705 122.503 254.788 122.503 254.952V255.434H122.516ZM133.102 262.941C133.102 263.113 133.019 263.2 132.855 263.2H132.534C132.369 263.2 132.287 263.113 132.287 262.941V254.952C132.287 254.788 132.369 254.705 132.534 254.705H132.855C133.019 254.705 133.102 254.788 133.102 254.952V255.397H133.114C133.361 255.133 133.649 254.936 133.978 254.804C134.308 254.664 134.658 254.594 135.028 254.594C135.621 254.594 136.139 254.722 136.584 254.977C137.036 255.232 137.386 255.598 137.633 256.076C137.88 256.545 138.003 257.092 138.003 257.718C138.003 258.343 137.88 258.895 137.633 259.372C137.386 259.841 137.036 260.204 136.584 260.459C136.139 260.714 135.621 260.842 135.028 260.842C134.658 260.842 134.308 260.776 133.978 260.644C133.657 260.504 133.373 260.302 133.126 260.039H133.102V262.941ZM133.077 259.237C133.266 259.483 133.538 259.689 133.892 259.854C134.254 260.01 134.612 260.088 134.966 260.088C135.625 260.088 136.156 259.87 136.559 259.434C136.97 258.998 137.176 258.426 137.176 257.718C137.176 257.01 136.97 256.438 136.559 256.002C136.156 255.565 135.625 255.347 134.966 255.347C134.612 255.347 134.254 255.43 133.892 255.594C133.538 255.751 133.266 255.952 133.077 256.199V259.237ZM144.136 254.952C144.136 254.788 144.219 254.705 144.383 254.705H144.704C144.869 254.705 144.951 254.788 144.951 254.952V260.471C144.951 260.644 144.869 260.73 144.704 260.73H144.383C144.219 260.73 144.136 260.644 144.136 260.471V260.027H144.124C143.877 260.29 143.585 260.492 143.248 260.632C142.918 260.772 142.568 260.842 142.198 260.842C141.605 260.842 141.083 260.714 140.63 260.459C140.186 260.204 139.84 259.841 139.593 259.372C139.354 258.895 139.235 258.343 139.235 257.718C139.235 257.092 139.354 256.545 139.593 256.076C139.84 255.598 140.186 255.232 140.63 254.977C141.083 254.722 141.605 254.594 142.198 254.594C142.568 254.594 142.918 254.664 143.248 254.804C143.585 254.944 143.877 255.146 144.124 255.409H144.136V254.952ZM144.161 256.212C143.972 255.956 143.7 255.751 143.346 255.594C142.992 255.43 142.643 255.347 142.297 255.347C141.861 255.347 141.474 255.446 141.136 255.644C140.799 255.841 140.535 256.121 140.346 256.483C140.157 256.845 140.062 257.257 140.062 257.718C140.062 258.179 140.157 258.59 140.346 258.953C140.535 259.315 140.799 259.595 141.136 259.792C141.474 259.99 141.861 260.088 142.297 260.088C142.643 260.088 142.992 260.01 143.346 259.854C143.7 259.689 143.972 259.479 144.161 259.224V256.212ZM147.8 255.409C148.047 255.162 148.343 254.964 148.689 254.816C149.043 254.668 149.397 254.594 149.751 254.594C150.459 254.594 151.019 254.808 151.43 255.236C151.842 255.656 152.047 256.228 152.047 256.952V260.471C152.047 260.553 152.023 260.619 151.973 260.669C151.932 260.71 151.87 260.73 151.788 260.73H151.492C151.41 260.73 151.344 260.71 151.294 260.669C151.253 260.619 151.233 260.553 151.233 260.471V257.063C151.233 256.545 151.076 256.129 150.763 255.816C150.451 255.504 150.039 255.347 149.529 255.347C149.183 255.347 148.858 255.425 148.553 255.582C148.257 255.73 148.002 255.948 147.788 256.236V260.471C147.788 260.644 147.705 260.73 147.541 260.73H147.22C147.055 260.73 146.973 260.644 146.973 260.471V254.952C146.973 254.788 147.055 254.705 147.22 254.705H147.541C147.705 254.705 147.788 254.788 147.788 254.952V255.409H147.8ZM155.756 261.866C155.567 262.352 155.324 262.714 155.028 262.953C154.731 263.192 154.373 263.311 153.954 263.311C153.55 263.311 153.188 263.22 152.867 263.039C152.752 262.973 152.694 262.912 152.694 262.854C152.694 262.821 152.707 262.78 152.731 262.731L152.855 262.484C152.904 262.385 152.97 262.336 153.052 262.336C153.102 262.336 153.151 262.348 153.2 262.373C153.472 262.496 153.723 262.558 153.954 262.558C154.447 262.558 154.81 262.249 155.04 261.632L155.386 260.73L153.163 254.989C153.147 254.956 153.139 254.911 153.139 254.853C153.139 254.755 153.209 254.705 153.349 254.705H153.694C153.76 254.705 153.818 254.726 153.867 254.767C153.917 254.8 153.954 254.845 153.978 254.903L155.781 259.755H155.793L157.584 254.903C157.633 254.771 157.732 254.705 157.88 254.705H158.25C158.39 254.705 158.46 254.755 158.46 254.853C158.46 254.911 158.452 254.956 158.435 254.989L155.756 261.866Z" fill="#A6A6A6"/>
<g clip-path="url(#clip3)">
<path d="M65.553 250.474V247.045H57.3218V252.532" stroke="#A6A6A6" stroke-width="1.37187" stroke-miterlimit="10" stroke-linecap="square"/>
<path d="M60.0659 262.135H62.8097" stroke="#A6A6A6" stroke-width="1.37187" stroke-miterlimit="10" stroke-linecap="square"/>
<path d="M60.0655 254.59H53.8921V262.135H60.0655V254.59Z" stroke="#A6A6A6" stroke-width="1.37187" stroke-miterlimit="10" stroke-linecap="square"/>
<path d="M68.983 252.532H62.8096V262.135H68.983V252.532Z" stroke="#A6A6A6" stroke-width="1.37187" stroke-miterlimit="10" stroke-linecap="square"/>
<path d="M65.5532 255.276H66.2392" stroke="#A6A6A6" stroke-width="1.37187" stroke-miterlimit="10" stroke-linecap="square"/>
<path d="M65.5532 257.334H66.2392" stroke="#A6A6A6" stroke-width="1.37187" stroke-miterlimit="10" stroke-linecap="square"/>
<path d="M65.5532 259.392H66.2392" stroke="#A6A6A6" stroke-width="1.37187" stroke-miterlimit="10" stroke-linecap="square"/>
<path d="M56.6357 259.392H57.3217" stroke="#A6A6A6" stroke-width="1.37187" stroke-miterlimit="10" stroke-linecap="square"/>
<path d="M56.6357 257.334H57.3217" stroke="#A6A6A6" stroke-width="1.37187" stroke-miterlimit="10" stroke-linecap="square"/>
</g>
<path fill-rule="evenodd" clip-rule="evenodd" d="M189.707 519.361L240.466 519.361V518.675H35.3716V519.361L86.8171 519.361V568.748H87.503V519.361H138.262V568.748H138.948V519.361H189.021V568.748H189.707V519.361Z" fill="white" fill-opacity="0.05"/>
<path d="M205.413 556.828C205.413 556.15 205.547 555.548 205.816 555.023C206.085 554.492 206.46 554.079 206.94 553.784C207.426 553.49 207.977 553.342 208.592 553.342C209.2 553.342 209.741 553.483 210.214 553.765C210.695 554.047 211.069 554.44 211.338 554.946C211.357 554.984 211.367 555.02 211.367 555.052C211.367 555.084 211.354 555.116 211.328 555.148C211.309 555.18 211.28 555.202 211.242 555.215L211.002 555.321C210.976 555.333 210.944 555.34 210.906 555.34C210.829 555.34 210.771 555.301 210.733 555.225C210.522 554.834 210.227 554.527 209.85 554.303C209.472 554.072 209.052 553.957 208.592 553.957C208.105 553.957 207.67 554.079 207.285 554.322C206.901 554.565 206.6 554.904 206.383 555.34C206.172 555.775 206.066 556.271 206.066 556.828C206.066 557.385 206.172 557.881 206.383 558.317C206.6 558.752 206.901 559.091 207.285 559.335C207.67 559.578 208.105 559.7 208.592 559.7C209.052 559.7 209.469 559.588 209.84 559.364C210.218 559.139 210.515 558.829 210.733 558.432C210.771 558.355 210.829 558.317 210.906 558.317C210.944 558.317 210.976 558.323 211.002 558.336L211.242 558.442C211.28 558.454 211.309 558.477 211.328 558.509C211.354 558.541 211.367 558.573 211.367 558.605C211.367 558.637 211.357 558.672 211.338 558.71C211.069 559.216 210.695 559.61 210.214 559.892C209.741 560.173 209.2 560.314 208.592 560.314C207.977 560.314 207.426 560.167 206.94 559.872C206.46 559.578 206.085 559.168 205.816 558.643C205.547 558.112 205.413 557.507 205.413 556.828ZM214.591 556.041C214.316 556.041 214.057 556.102 213.813 556.223C213.577 556.339 213.375 556.508 213.208 556.732V560.026C213.208 560.161 213.144 560.228 213.016 560.228H212.767C212.639 560.228 212.575 560.161 212.575 560.026V553.506C212.575 553.378 212.639 553.314 212.767 553.314H213.016C213.144 553.314 213.208 553.378 213.208 553.506V556.089H213.218C213.41 555.897 213.644 555.743 213.919 555.628C214.201 555.513 214.482 555.455 214.764 555.455C215.302 555.455 215.728 555.621 216.041 555.954C216.361 556.281 216.521 556.726 216.521 557.289V560.026C216.521 560.09 216.502 560.141 216.464 560.18C216.432 560.212 216.384 560.228 216.32 560.228H216.089C216.025 560.228 215.974 560.212 215.936 560.18C215.904 560.141 215.888 560.09 215.888 560.026V557.376C215.888 556.972 215.769 556.649 215.532 556.406C215.295 556.162 214.982 556.041 214.591 556.041ZM221.528 555.734C221.528 555.605 221.592 555.541 221.72 555.541H221.97C222.098 555.541 222.162 555.605 222.162 555.734V560.026C222.162 560.161 222.098 560.228 221.97 560.228H221.72C221.592 560.228 221.528 560.161 221.528 560.026V559.68H221.519C221.327 559.885 221.099 560.042 220.837 560.151C220.581 560.26 220.309 560.314 220.021 560.314C219.56 560.314 219.153 560.215 218.801 560.017C218.455 559.818 218.186 559.536 217.994 559.171C217.809 558.8 217.716 558.371 217.716 557.885C217.716 557.398 217.809 556.972 217.994 556.607C218.186 556.236 218.455 555.951 218.801 555.753C219.153 555.554 219.56 555.455 220.021 555.455C220.309 555.455 220.581 555.509 220.837 555.618C221.099 555.727 221.327 555.884 221.519 556.089H221.528V555.734ZM221.548 556.713C221.4 556.515 221.189 556.355 220.914 556.233C220.638 556.105 220.366 556.041 220.098 556.041C219.758 556.041 219.457 556.118 219.195 556.271C218.932 556.425 218.727 556.643 218.58 556.924C218.433 557.206 218.359 557.526 218.359 557.885C218.359 558.243 218.433 558.563 218.58 558.845C218.727 559.127 218.932 559.344 219.195 559.498C219.457 559.652 219.758 559.728 220.098 559.728C220.366 559.728 220.638 559.668 220.914 559.546C221.189 559.418 221.4 559.255 221.548 559.056V556.713ZM224.829 558.768C224.829 559.069 224.896 559.306 225.031 559.479C225.165 559.645 225.351 559.728 225.588 559.728C225.754 559.728 225.956 559.68 226.193 559.584C226.231 559.565 226.27 559.556 226.308 559.556C226.372 559.556 226.423 559.594 226.462 559.671L226.548 559.853C226.567 559.892 226.577 559.927 226.577 559.959C226.577 560.023 226.532 560.074 226.443 560.113C226.142 560.247 225.838 560.314 225.53 560.314C225.108 560.314 224.778 560.177 224.541 559.901C224.311 559.626 224.195 559.235 224.195 558.73V556.098H223.245C223.181 556.098 223.129 556.082 223.091 556.05C223.059 556.012 223.043 555.961 223.043 555.897V555.743C223.043 555.679 223.059 555.631 223.091 555.599C223.129 555.561 223.181 555.541 223.245 555.541H224.195V554.552C224.195 554.463 224.205 554.402 224.224 554.37C224.243 554.338 224.285 554.306 224.349 554.274L224.58 554.159L224.656 554.139C224.708 554.139 224.749 554.159 224.781 554.197C224.813 554.229 224.829 554.271 224.829 554.322V555.541H226.289C226.353 555.541 226.401 555.561 226.433 555.599C226.471 555.631 226.491 555.679 226.491 555.743V555.897C226.491 555.961 226.471 556.012 226.433 556.05C226.401 556.082 226.353 556.098 226.289 556.098H224.829V558.768Z" fill="#DADADA"/>
<path d="M152.666 560.228C152.538 560.228 152.474 560.161 152.474 560.026V553.63C152.474 553.496 152.538 553.429 152.666 553.429H156.718C156.846 553.429 156.91 553.496 156.91 553.63V553.851C156.91 553.979 156.846 554.043 156.718 554.043H153.127V556.483H156.344C156.472 556.483 156.536 556.55 156.536 556.684V556.896C156.536 557.024 156.472 557.088 156.344 557.088H153.127V559.613H156.718C156.846 559.613 156.91 559.677 156.91 559.805V560.026C156.91 560.161 156.846 560.228 156.718 560.228H152.666ZM158.705 556.108C159.121 555.673 159.598 555.455 160.136 555.455C160.45 555.455 160.725 555.525 160.962 555.666C161.205 555.807 161.394 556.009 161.528 556.271C161.714 556.002 161.954 555.801 162.248 555.666C162.543 555.525 162.869 555.455 163.228 555.455C163.708 555.455 164.089 555.621 164.371 555.954C164.659 556.287 164.803 556.732 164.803 557.289V560.026C164.803 560.161 164.739 560.228 164.611 560.228H164.361C164.233 560.228 164.169 560.161 164.169 560.026V557.376C164.169 556.979 164.06 556.659 163.843 556.415C163.631 556.166 163.356 556.041 163.017 556.041C162.767 556.041 162.524 556.105 162.287 556.233C162.05 556.355 161.852 556.527 161.692 556.751C161.73 556.912 161.749 557.091 161.749 557.289V560.026C161.749 560.09 161.73 560.141 161.692 560.18C161.659 560.212 161.611 560.228 161.547 560.228H161.317C161.253 560.228 161.202 560.212 161.163 560.18C161.131 560.141 161.115 560.09 161.115 560.026V557.376C161.115 556.985 161.01 556.665 160.798 556.415C160.587 556.166 160.312 556.041 159.973 556.041C159.742 556.041 159.508 556.105 159.272 556.233C159.041 556.355 158.849 556.521 158.695 556.732V560.026C158.695 560.161 158.631 560.228 158.503 560.228H158.254C158.126 560.228 158.062 560.161 158.062 560.026V555.734C158.062 555.605 158.126 555.541 158.254 555.541H158.503C158.631 555.541 158.695 555.605 158.695 555.734V556.108H158.705ZM169.81 555.734C169.81 555.605 169.874 555.541 170.002 555.541H170.252C170.38 555.541 170.444 555.605 170.444 555.734V560.026C170.444 560.161 170.38 560.228 170.252 560.228H170.002C169.874 560.228 169.81 560.161 169.81 560.026V559.68H169.8C169.608 559.885 169.381 560.042 169.119 560.151C168.862 560.26 168.59 560.314 168.302 560.314C167.841 560.314 167.435 560.215 167.083 560.017C166.737 559.818 166.468 559.536 166.276 559.171C166.09 558.8 165.998 558.371 165.998 557.885C165.998 557.398 166.09 556.972 166.276 556.607C166.468 556.236 166.737 555.951 167.083 555.753C167.435 555.554 167.841 555.455 168.302 555.455C168.59 555.455 168.862 555.509 169.119 555.618C169.381 555.727 169.608 555.884 169.8 556.089H169.81V555.734ZM169.829 556.713C169.682 556.515 169.471 556.355 169.195 556.233C168.92 556.105 168.648 556.041 168.379 556.041C168.04 556.041 167.739 556.118 167.476 556.271C167.214 556.425 167.009 556.643 166.862 556.924C166.715 557.206 166.641 557.526 166.641 557.885C166.641 558.243 166.715 558.563 166.862 558.845C167.009 559.127 167.214 559.344 167.476 559.498C167.739 559.652 168.04 559.728 168.379 559.728C168.648 559.728 168.92 559.668 169.195 559.546C169.471 559.418 169.682 559.255 169.829 559.056V556.713ZM171.891 554.111C171.891 553.983 171.933 553.88 172.016 553.803C172.099 553.72 172.208 553.678 172.343 553.678C172.471 553.678 172.573 553.72 172.65 553.803C172.733 553.88 172.775 553.983 172.775 554.111C172.775 554.232 172.733 554.335 172.65 554.418C172.567 554.501 172.464 554.543 172.343 554.543C172.208 554.543 172.099 554.501 172.016 554.418C171.933 554.335 171.891 554.232 171.891 554.111ZM172.65 560.026C172.65 560.161 172.586 560.228 172.458 560.228H172.208C172.08 560.228 172.016 560.161 172.016 560.026V555.743C172.016 555.609 172.08 555.541 172.208 555.541H172.458C172.586 555.541 172.65 555.609 172.65 555.743V560.026ZM174.863 560.026C174.863 560.09 174.844 560.141 174.805 560.18C174.773 560.212 174.725 560.228 174.661 560.228H174.421C174.293 560.228 174.229 560.161 174.229 560.026V553.515C174.229 553.381 174.293 553.314 174.421 553.314H174.661C174.725 553.314 174.773 553.333 174.805 553.371C174.844 553.403 174.863 553.451 174.863 553.515V560.026Z" fill="#DADADA"/>
<path d="M100.989 560.228C100.925 560.228 100.874 560.212 100.835 560.18C100.803 560.141 100.787 560.09 100.787 560.026V553.63C100.787 553.566 100.803 553.518 100.835 553.486C100.874 553.448 100.925 553.429 100.989 553.429H102.881C103.335 553.429 103.738 553.518 104.091 553.698C104.449 553.877 104.728 554.127 104.926 554.447C105.131 554.76 105.233 555.119 105.233 555.522C105.233 555.919 105.131 556.278 104.926 556.598C104.728 556.912 104.449 557.158 104.091 557.337C103.732 557.51 103.329 557.597 102.881 557.597H101.44V560.026C101.44 560.09 101.421 560.141 101.383 560.18C101.344 560.212 101.293 560.228 101.229 560.228H100.989ZM104.59 555.522C104.59 555.074 104.436 554.716 104.129 554.447C103.828 554.178 103.412 554.043 102.881 554.043H101.44V556.982H102.881C103.406 556.982 103.822 556.851 104.129 556.588C104.436 556.319 104.59 555.964 104.59 555.522ZM108.326 556.041C108.051 556.041 107.792 556.102 107.548 556.223C107.311 556.339 107.11 556.508 106.943 556.732V560.026C106.943 560.161 106.879 560.228 106.751 560.228H106.501C106.373 560.228 106.309 560.161 106.309 560.026V553.506C106.309 553.378 106.373 553.314 106.501 553.314H106.751C106.879 553.314 106.943 553.378 106.943 553.506V556.089H106.953C107.145 555.897 107.379 555.743 107.654 555.628C107.936 555.513 108.217 555.455 108.499 555.455C109.037 555.455 109.462 555.621 109.776 555.954C110.096 556.281 110.256 556.726 110.256 557.289V560.026C110.256 560.09 110.237 560.141 110.199 560.18C110.167 560.212 110.119 560.228 110.055 560.228H109.824C109.76 560.228 109.709 560.212 109.671 560.18C109.639 560.141 109.622 560.09 109.622 560.026V557.376C109.622 556.972 109.504 556.649 109.267 556.406C109.03 556.162 108.717 556.041 108.326 556.041ZM111.451 557.885C111.451 557.424 111.55 557.008 111.748 556.636C111.947 556.265 112.219 555.977 112.565 555.772C112.917 555.561 113.311 555.455 113.746 555.455C114.188 555.455 114.581 555.561 114.927 555.772C115.279 555.977 115.551 556.265 115.743 556.636C115.942 557.008 116.041 557.424 116.041 557.885C116.041 558.346 115.942 558.762 115.743 559.133C115.545 559.504 115.27 559.796 114.917 560.007C114.572 560.212 114.181 560.314 113.746 560.314C113.311 560.314 112.917 560.212 112.565 560.007C112.219 559.796 111.947 559.504 111.748 559.133C111.55 558.762 111.451 558.346 111.451 557.885ZM115.407 557.885C115.407 557.539 115.334 557.225 115.186 556.944C115.046 556.662 114.847 556.441 114.591 556.281C114.341 556.121 114.06 556.041 113.746 556.041C113.432 556.041 113.147 556.121 112.891 556.281C112.642 556.441 112.443 556.662 112.296 556.944C112.155 557.225 112.085 557.539 112.085 557.885C112.085 558.23 112.155 558.544 112.296 558.826C112.443 559.107 112.642 559.328 112.891 559.488C113.147 559.648 113.432 559.728 113.746 559.728C114.053 559.728 114.332 559.648 114.581 559.488C114.837 559.328 115.039 559.107 115.186 558.826C115.334 558.544 115.407 558.23 115.407 557.885ZM117.953 556.089C118.145 555.897 118.376 555.743 118.645 555.628C118.92 555.513 119.195 555.455 119.471 555.455C120.021 555.455 120.456 555.621 120.777 555.954C121.097 556.281 121.257 556.726 121.257 557.289V560.026C121.257 560.09 121.238 560.141 121.199 560.18C121.167 560.212 121.119 560.228 121.055 560.228H120.825C120.761 560.228 120.709 560.212 120.671 560.18C120.639 560.141 120.623 560.09 120.623 560.026V557.376C120.623 556.972 120.501 556.649 120.258 556.406C120.015 556.162 119.695 556.041 119.298 556.041C119.029 556.041 118.776 556.102 118.539 556.223C118.309 556.339 118.11 556.508 117.944 556.732V560.026C117.944 560.161 117.88 560.228 117.752 560.228H117.502C117.374 560.228 117.31 560.161 117.31 560.026V555.734C117.31 555.605 117.374 555.541 117.502 555.541H117.752C117.88 555.541 117.944 555.605 117.944 555.734V556.089H117.953ZM124.66 555.455C125.05 555.455 125.399 555.548 125.707 555.734C126.02 555.919 126.267 556.185 126.446 556.531C126.625 556.87 126.715 557.267 126.715 557.721V557.779C126.715 557.907 126.648 557.971 126.513 557.971H123.085C123.104 558.509 123.261 558.938 123.556 559.258C123.856 559.572 124.237 559.728 124.698 559.728C125.217 559.728 125.649 559.53 125.995 559.133C126.046 559.075 126.104 559.047 126.168 559.047C126.193 559.047 126.225 559.053 126.264 559.066L126.475 559.162C126.558 559.2 126.6 559.245 126.6 559.296C126.6 559.335 126.584 559.373 126.552 559.412C126.353 559.687 126.088 559.908 125.755 560.074C125.422 560.234 125.07 560.314 124.698 560.314C124.269 560.314 123.885 560.212 123.546 560.007C123.207 559.796 122.938 559.504 122.739 559.133C122.547 558.762 122.451 558.346 122.451 557.885C122.451 557.417 122.544 557.001 122.73 556.636C122.915 556.265 123.175 555.977 123.508 555.772C123.84 555.561 124.225 555.455 124.66 555.455ZM124.66 556.041C124.269 556.041 123.936 556.169 123.661 556.425C123.386 556.675 123.207 557.008 123.123 557.424H126.043C126.017 556.982 125.87 556.643 125.601 556.406C125.332 556.162 125.018 556.041 124.66 556.041Z" fill="#DADADA"/>
<path d="M53.6836 560.228C53.5555 560.228 53.4915 560.161 53.4915 560.026V553.63C53.4915 553.496 53.5555 553.429 53.6836 553.429H57.544C57.6721 553.429 57.7361 553.496 57.7361 553.63V553.842C57.7361 553.976 57.6721 554.043 57.544 554.043H54.1445V556.684H57.3904C57.4544 556.684 57.5024 556.703 57.5344 556.742C57.5728 556.774 57.592 556.822 57.592 556.886V557.088C57.592 557.152 57.5728 557.203 57.5344 557.241C57.5024 557.273 57.4544 557.289 57.3904 557.289H54.1445V560.026C54.1445 560.161 54.0805 560.228 53.9525 560.228H53.6836ZM59.224 558.25L58.5422 560.074C58.5102 560.177 58.4302 560.228 58.3021 560.228H58.1005C58.0493 560.228 58.0076 560.218 57.9756 560.199C57.9436 560.173 57.9276 560.141 57.9276 560.103C57.9276 560.09 57.934 560.058 57.9468 560.007L60.3572 553.582C60.3892 553.48 60.4692 553.429 60.5973 553.429H60.895C61.023 553.429 61.103 553.48 61.1351 553.582L63.5454 560.007C63.5582 560.033 63.5646 560.065 63.5646 560.103C63.5646 560.186 63.507 560.228 63.3918 560.228H63.1421C63.0141 560.228 62.934 560.177 62.902 560.074L62.2202 558.25H59.224ZM62.0089 557.683L60.7317 554.255H60.7221L59.4353 557.683H62.0089ZM64.0435 556.828C64.0435 556.15 64.178 555.548 64.4468 555.023C64.7157 554.492 65.0903 554.079 65.5704 553.784C66.057 553.49 66.6043 553.342 67.2125 553.342C67.8271 553.342 68.3745 553.49 68.8547 553.784C69.3348 554.079 69.7093 554.492 69.9782 555.023C70.2471 555.548 70.3816 556.15 70.3816 556.828C70.3816 557.456 70.2663 558.022 70.0358 558.528C69.8054 559.027 69.4821 559.428 69.0659 559.728L70.0454 560.842C70.0903 560.894 70.1127 560.938 70.1127 560.977C70.1127 561.015 70.0935 561.044 70.0551 561.063C70.0166 561.082 69.9718 561.092 69.9206 561.092H69.6325C69.5429 561.092 69.4629 561.05 69.3924 560.967L68.5666 560.026C68.1632 560.218 67.7119 560.314 67.2125 560.314C66.6043 560.314 66.057 560.167 65.5704 559.872C65.0903 559.578 64.7157 559.168 64.4468 558.643C64.178 558.112 64.0435 557.507 64.0435 556.828ZM64.6965 556.828C64.6965 557.379 64.8022 557.875 65.0134 558.317C65.2311 558.752 65.5288 559.091 65.9065 559.335C66.2906 559.578 66.726 559.7 67.2125 559.7C67.5454 559.7 67.8655 559.636 68.1728 559.508L67.1069 558.336C67.0621 558.291 67.0397 558.243 67.0397 558.192C67.0397 558.147 67.0589 558.112 67.0973 558.086C67.1357 558.061 67.1901 558.048 67.2606 558.048H67.395C67.4846 558.048 67.5518 558.061 67.5967 558.086C67.6415 558.105 67.6927 558.147 67.7503 558.211L68.6626 559.229C68.9955 558.973 69.2548 558.64 69.4405 558.23C69.6325 557.814 69.7285 557.347 69.7285 556.828C69.7285 556.278 69.6197 555.785 69.402 555.349C69.1908 554.908 68.8931 554.565 68.509 554.322C68.1312 554.079 67.6991 553.957 67.2125 553.957C66.726 553.957 66.2906 554.079 65.9065 554.322C65.5288 554.565 65.2311 554.908 65.0134 555.349C64.8022 555.785 64.6965 556.278 64.6965 556.828Z" fill="#DADADA"/>
<path d="M179.464 53.2915C179.895 53.2915 180.265 53.4463 180.575 53.756C180.898 54.0657 181.059 54.4427 181.059 54.887V80.0111C181.059 80.4554 180.911 80.8324 180.615 81.1421C180.332 81.4517 179.975 81.6066 179.545 81.6066H154.299C153.855 81.6066 153.478 81.4517 153.168 81.1421C152.859 80.8324 152.704 80.4554 152.704 80.0111V54.887C152.704 54.4427 152.859 54.0657 153.168 53.756C153.478 53.4463 153.855 53.2915 154.299 53.2915H179.464ZM156.016 56.6239V78.2944H177.707V56.6239H156.016ZM94.0944 59.4311C94.0944 59.0542 94.2223 58.7377 94.4781 58.4819C94.7339 58.2261 95.0503 58.0982 95.4273 58.0982C95.8043 58.0982 96.1207 58.2261 96.3766 58.4819C96.6458 58.7377 96.7805 59.0542 96.7805 59.4311C96.7805 59.8081 96.6526 60.1313 96.3968 60.4006C96.1409 60.6564 95.8178 60.7843 95.4273 60.7843C95.0503 60.7843 94.7339 60.6564 94.4781 60.4006C94.2223 60.1313 94.0944 59.8081 94.0944 59.4311ZM124.914 67.449C124.914 68.4185 124.678 69.3004 124.207 70.0947C123.749 70.8891 123.11 71.5152 122.288 71.973C121.467 72.4173 120.558 72.6395 119.562 72.6395C118.565 72.6395 117.657 72.4173 116.835 71.973C116.027 71.5152 115.388 70.8891 114.917 70.0947C114.459 69.3004 114.23 68.4185 114.23 67.449C114.23 66.4796 114.459 65.5977 114.917 64.8033C115.388 64.009 116.027 63.3896 116.835 62.9453C117.657 62.4875 118.565 62.2586 119.562 62.2586C120.572 62.2586 121.48 62.4875 122.288 62.9453C123.11 63.3896 123.749 64.009 124.207 64.8033C124.678 65.5843 124.914 66.4662 124.914 67.449ZM131.7 70.6804C132.777 70.6804 133.632 70.2496 134.265 69.3879C134.413 69.1994 134.547 69.1051 134.669 69.1051C134.763 69.1051 134.857 69.1321 134.951 69.1859L135.86 69.5696C136.076 69.6504 136.183 69.7783 136.183 69.9534C136.183 70.0745 136.15 70.1755 136.082 70.2563C135.598 71.0238 134.971 71.6162 134.204 72.0336C133.45 72.4375 132.615 72.6395 131.7 72.6395C130.69 72.6395 129.774 72.4173 128.953 71.973C128.145 71.5152 127.506 70.8891 127.034 70.0947C126.577 69.3004 126.348 68.4185 126.348 67.449C126.348 66.4662 126.577 65.5843 127.034 64.8033C127.506 64.009 128.145 63.3896 128.953 62.9453C129.761 62.4875 130.67 62.2586 131.68 62.2586C132.649 62.2586 133.524 62.4808 134.305 62.9251C135.099 63.3694 135.699 63.9753 136.102 64.7427C136.156 64.837 136.183 64.9245 136.183 65.0053C136.183 65.1669 136.062 65.3015 135.82 65.4092L134.891 65.793C134.81 65.8333 134.736 65.8535 134.669 65.8535C134.507 65.8535 134.359 65.7458 134.224 65.5304C133.888 65.0726 133.517 64.736 133.113 64.5206C132.71 64.2917 132.232 64.1773 131.68 64.1773C130.777 64.1773 130.03 64.4869 129.438 65.1063C128.859 65.7122 128.569 66.4931 128.569 67.449C128.569 68.3915 128.859 69.1657 129.438 69.7716C130.03 70.3775 130.784 70.6804 131.7 70.6804ZM147.897 72.5789C147.385 72.5789 146.941 72.4644 146.564 72.2355C146.201 72.0066 145.931 71.6835 145.756 71.2661C144.841 72.1817 143.69 72.6395 142.303 72.6395C141.401 72.6395 140.586 72.4173 139.859 71.973C139.145 71.5152 138.58 70.8959 138.162 70.1149C137.759 69.3206 137.557 68.4319 137.557 67.449C137.557 66.4662 137.759 65.5843 138.162 64.8033C138.58 64.009 139.145 63.3896 139.859 62.9453C140.586 62.4875 141.401 62.2586 142.303 62.2586C142.922 62.2586 143.521 62.3663 144.1 62.5818C144.693 62.7972 145.144 63.0799 145.453 63.43H145.494V62.9655C145.494 62.6289 145.662 62.4606 145.999 62.4606H147.19C147.338 62.4606 147.453 62.5077 147.534 62.602C147.628 62.6827 147.675 62.8039 147.675 62.9655V69.6504C147.675 69.9062 147.722 70.1284 147.816 70.3169C147.924 70.4919 148.086 70.5794 148.301 70.5794H148.341C148.665 70.5794 148.826 70.7343 148.826 71.044V71.9528C148.826 72.1413 148.745 72.2961 148.584 72.4173C148.422 72.525 148.193 72.5789 147.897 72.5789ZM164.337 63.7329C164.337 63.6791 164.317 63.6252 164.276 63.5714C164.249 63.5175 164.209 63.4771 164.155 63.4502L161.449 62.3192C161.422 62.3057 161.388 62.299 161.348 62.299C161.253 62.299 161.173 62.3327 161.105 62.4C161.052 62.4538 161.025 62.5212 161.025 62.602V72.2961C161.025 72.4173 161.065 72.5048 161.146 72.5587C161.24 72.626 161.341 72.6395 161.449 72.5991L164.155 71.4681C164.276 71.4277 164.337 71.3334 164.337 71.1853V63.7329ZM169.547 63.4502C169.494 63.4771 169.446 63.5175 169.406 63.5714C169.379 63.6252 169.366 63.6791 169.366 63.7329V71.1853C169.366 71.2392 169.379 71.293 169.406 71.3469C169.446 71.4008 169.494 71.4412 169.547 71.4681L172.254 72.5991C172.281 72.6125 172.321 72.6193 172.375 72.6193C172.456 72.6193 172.53 72.5856 172.597 72.5183C172.664 72.4644 172.698 72.3904 172.698 72.2961V62.602C172.698 62.4942 172.644 62.4135 172.536 62.3596C172.442 62.2923 172.348 62.2788 172.254 62.3192L169.547 63.4502ZM97.6489 71.9528C97.6489 72.1413 97.5681 72.2961 97.4066 72.4173C97.245 72.525 97.0161 72.5789 96.7199 72.5789C95.9794 72.5789 95.3937 72.35 94.9628 71.8922C94.5454 71.4344 94.3367 70.8016 94.3367 69.9938V62.9655C94.3367 62.6289 94.505 62.4606 94.8416 62.4606H96.013C96.3496 62.4606 96.5179 62.6289 96.5179 62.9655V69.6504C96.5179 69.9062 96.5651 70.1284 96.6593 70.3169C96.7536 70.4919 96.9017 70.5794 97.1036 70.5794H97.144C97.4806 70.5794 97.6489 70.7343 97.6489 71.044V71.9528ZM111.261 62.8847C111.342 62.602 111.537 62.4606 111.847 62.4606H112.917C113.052 62.4606 113.16 62.501 113.24 62.5818C113.321 62.6491 113.362 62.7433 113.362 62.8645C113.362 62.9318 113.355 62.9857 113.341 63.0261L110.554 71.9932C110.474 72.2894 110.285 72.4375 109.989 72.4375H108.696C108.4 72.4375 108.212 72.2961 108.131 72.0134L105.95 65.288H105.909L103.748 72.0134C103.667 72.2961 103.472 72.4375 103.162 72.4375H101.87C101.587 72.4375 101.405 72.2894 101.325 71.9932L98.4972 63.0261C98.4837 62.9857 98.477 62.9251 98.477 62.8443C98.477 62.7366 98.5174 62.6491 98.5981 62.5818C98.6789 62.501 98.7866 62.4606 98.9213 62.4606H100.153C100.315 62.4606 100.436 62.4942 100.517 62.5616C100.611 62.6289 100.678 62.7366 100.719 62.8847L102.577 69.7918H102.617L104.718 62.8645C104.798 62.5952 104.994 62.4606 105.303 62.4606H106.677C106.986 62.4606 107.182 62.602 107.262 62.8847L109.302 69.7918H109.343L111.261 62.8847ZM116.452 67.449C116.452 68.0684 116.586 68.6272 116.856 69.1253C117.125 69.61 117.495 69.9938 117.966 70.2765C118.438 70.5458 118.969 70.6804 119.562 70.6804C120.477 70.6804 121.225 70.3775 121.804 69.7716C122.396 69.1657 122.692 68.3915 122.692 67.449C122.692 66.4931 122.396 65.7122 121.804 65.1063C121.225 64.4869 120.477 64.1773 119.562 64.1773C118.66 64.1773 117.912 64.4869 117.32 65.1063C116.741 65.7122 116.452 66.4931 116.452 67.449ZM142.747 64.1773C141.845 64.1773 141.125 64.4802 140.586 65.0861C140.047 65.692 139.778 66.4729 139.778 67.4288C139.778 68.3713 140.047 69.1523 140.586 69.7716C141.125 70.3775 141.845 70.6804 142.747 70.6804C143.299 70.6804 143.811 70.566 144.282 70.3371C144.753 70.0947 145.157 69.7447 145.494 69.2869V65.5304C144.821 64.6283 143.905 64.1773 142.747 64.1773Z" fill="white"/>
</g>
<defs>
<filter id="filter0_d" x="0.371582" y="0" width="275.781" height="618.748" filterUnits="userSpaceOnUse" color-interpolation-filters="sRGB">
<feFlood flood-opacity="0" result="BackgroundImageFix"/>
<feColorMatrix in="SourceAlpha" type="matrix" values="0 0 0 0 0 0 0 0 0 0 0 0 0 0 0 0 0 0 127 0"/>
<feOffset dy="15"/>
<feGaussianBlur stdDeviation="17.5"/>
<feColorMatrix type="matrix" values="0 0 0 0 0.666927 0 0 0 0 0.746958 0 0 0 0 0.820833 0 0 0 0.45 0"/>
<feBlend mode="normal" in2="BackgroundImageFix" result="effect1_dropShadow"/>
<feBlend mode="normal" in="SourceGraphic" in2="effect1_dropShadow" result="shape"/>
</filter>
<clipPath id="clip0">
<rect x="53.2056" y="114.659" width="16.4625" height="16.4625" fill="white"/>
</clipPath>
<clipPath id="clip1">
<rect x="53.2061" y="158.559" width="16.4625" height="16.4625" fill="white"/>
</clipPath>
<clipPath id="clip2">
<rect x="53.2061" y="202.459" width="16.4625" height="16.4625" fill="white"/>
</clipPath>
<clipPath id="clip3">
<rect x="53.2061" y="246.359" width="16.4625" height="16.4625" fill="white"/>
</clipPath>
</defs>
</svg>
